client,version,display_name,thumbnail
msn,140,WLM 2009,14-16-sm.png
msn,85,WLM 8.5,8-sm.png
msn,81,WLM 8.1,8-sm.png
msn,75,MSN 7.5,5-7-sm.png
msn,70,MSN 7.0,5-7-sm.png
msn,62,MSN 6.2,5-7-sm.png
msn,50,MSN 5.0,5-7-sm.png
msn,47,MSN 4.7,4-sm.png
msn,46,MSN 4.6,4-sm.png
msn,45,MSN 4.5,4-sm.png
msn,36,MSN 3.6,1-3-sm.png
msn,22,MSN 2.2,1-3-sm.png
msn,10,MSN 1.0,1-3-sm.png
yahoo,55,Y!M 5.5,4-5-sm.png
yahoo,50,Y!M 5.0,4-5-sm.png
